<?xml version="1.0" standalone="no"?>
<!DOCTYPE svg PUBLIC "-//W3C//DTD SVG 20010904//EN"
 "http://www.w3.org/TR/2001/REC-SVG-20010904/DTD/svg10.dtd">
<svg version="1.0" xmlns="http://www.w3.org/2000/svg"
 width="126.000000pt" height="126.000000pt" viewBox="0 0 126.000000 126.000000"
 preserveAspectRatio="xMidYMid meet">
<metadata>
Created by potrace 1.14, written by Peter Selinger 2001-2017
</metadata>
<g transform="translate(0.000000,126.000000) scale(0.100000,-0.100000)"
fill="#000000" stroke="none">
<path d="M489 1245 c-214 -52 -380 -204 -457 -417 -23 -65 -26 -87 -26 -198 1
-101 5 -137 23 -190 86 -257 308 -425 571 -435 231 -9 429 91 554 279 49 74
73 132 92 228 41 204 -23 413 -173 562 -121 120 -252 177 -423 181 -65 2 -127
-2 -161 -10z m262 -224 c108 -34 225 -132 214 -181 -11 -49 -174 -170 -229
-170 -19 0 -55 17 -100 47 -83 56 -108 58 -193 14 -85 -45 -120 -45 -172 -2
l-34 28 27 58 c46 97 166 192 269 215 69 14 152 11 218 -9z m-127 -478 c82
-56 109 -58 193 -15 32 17 65 32 73 33 41 4 69 -4 100 -29 l34 -29 -27 -55
c-110 -224 -409 -298 -607 -149 -72 54 -104 100 -91 132 18 49 175 159 225
159 20 0 55 -16 100 -47z"/>
</g>
</svg>
